Using themes in ggplot2
…
Import data into R

Using radxl package we import the AE data into R, also package here is used to build relative paths.

AE_tabs <- excel_sheets(here("data","AE_England_data.xls"))
AE_data<- read_excel(
                     here("data", "AE_England_data.xls"), 
                     sheet = 1, skip =17) %>% 
                     clean_names()
AE_data

# A tibble: 105 x 18
   x1    period              type_1_departments_major_a_e type_2_departments_s~1
   <chr> <dttm>                                     <dbl>                  <dbl>
 1 <NA>  2010-08-01 00:00:00                     1138652                  54371 
 2 <NA>  2010-09-01 00:00:00                     1150728                  55181 
 3 <NA>  2010-10-01 00:00:00                     1163143                  54961 
 4 <NA>  2010-11-01 00:00:00                     1111295.                 53727.
 5 <NA>  2010-12-01 00:00:00                     1159204.                 45536.
 6 <NA>  2011-01-01 00:00:00                     1133881.                 51585.
 7 <NA>  2011-02-01 00:00:00                     1053707.                 51249.
 8 <NA>  2011-03-01 00:00:00                     1225222.                 57900.
 9 <NA>  2011-04-01 00:00:00                     1197213.                 54042.
10 <NA>  2011-05-01 00:00:00                     1221687.                 57067 
# i 95 more rows
# i abbreviated name: 1: type_2_departments_single_specialty
# i 14 more variables: type_3_departments_other_a_e_minor_injury_unit <dbl>,
#   total_attendances <dbl>, emergency_admissions_via_type_1_a_e <dbl>,
#   emergency_admissions_via_type_2_a_e <dbl>,
#   emergency_admissions_via_type_3_and_4_a_e <dbl>,
#   total_emergency_admissions_via_a_e <dbl>, ...
…
                ) %>% 
  mutate(Period = as.Date(period,tz="London"),tz="London")
AE_data_subset

# A tibble: 105 x 7
   period              type_1_Major_att type_2_Single_esp_att type_3_other_att
   <dttm>                         <dbl>                 <dbl>            <dbl>
 1 2010-08-01 00:00:00         1138652                 54371           559358 
 2 2010-09-01 00:00:00         1150728                 55181           550359 
 3 2010-10-01 00:00:00         1163143                 54961           583244 
 4 2010-11-01 00:00:00         1111295.                53727.          486005.
 5 2010-12-01 00:00:00         1159204.                45536.          533001.
 6 2011-01-01 00:00:00         1133881.                51585.          542331.
 7 2011-02-01 00:00:00         1053707.                51249.          494408.
 8 2011-03-01 00:00:00         1225222.                57900.          580319.
 9 2011-04-01 00:00:00         1197213.                54042.          593120.
10 2011-05-01 00:00:00         1221687.                57067           594941.
# i 95 more rows
# i 3 more variables: total_att <dbl>, Period <date>, tz <chr>
…
